{
    "type": "AdaptiveCard",
    "$schema": "http://adaptivecards.io/schemas/adaptive-card.json",
    "version": "1.3",
    "body": [
        {
            "type": "TextBlock",
            "text": "Which year do you want to select??"
        }
    ],
      "actions": [
    {
      "type": "Action.Submit",
      "title": "Question",
      "data": "Question"
    },
    {
        "type": "Action.Submit",
        "title": "Solution",
        "data": "Solution"
    }
  ]
}